\beamer@sectionintoc {1}{The data that we have}{2}{0}{1}
\beamer@sectionintoc {2}{Gaussian noise}{2}{0}{2}
\beamer@sectionintoc {3}{Which run is the best ?}{3}{0}{3}
\beamer@sectionintoc {4}{What we want to do in the future ?}{4}{0}{4}
\beamer@sectionintoc {5}{Future}{5}{0}{5}
