\relax 
\providecommand\hyper@newdestlabel[2]{}
\providecommand\HyperFirstAtBeginDocument{\AtBeginDocument}
\HyperFirstAtBeginDocument{\ifx\hyper@anchor\@undefined
\global\let\oldcontentsline\contentsline
\gdef\contentsline#1#2#3#4{\oldcontentsline{#1}{#2}{#3}}
\global\let\oldnewlabel\newlabel
\gdef\newlabel#1#2{\newlabelxx{#1}#2}
\gdef\newlabelxx#1#2#3#4#5#6{\oldnewlabel{#1}{{#2}{#3}}}
\AtEndDocument{\ifx\hyper@anchor\@undefined
\let\contentsline\oldcontentsline
\let\newlabel\oldnewlabel
\fi}
\fi}
\global\let\hyper@last\relax 
\gdef\HyperFirstAtBeginDocument#1{#1}
\providecommand\HyField@AuxAddToFields[1]{}
\providecommand\HyField@AuxAddToCoFields[2]{}
\@writefile{nav}{\headcommand {\slideentry {0}{0}{1}{1/1}{}{0}}}
\@writefile{nav}{\headcommand {\beamer@framepages {1}{1}}}
\@writefile{toc}{\beamer@sectionintoc {1}{The data that we have}{2}{0}{1}}
\@writefile{nav}{\headcommand {\beamer@sectionpages {1}{1}}}
\@writefile{nav}{\headcommand {\beamer@subsectionpages {1}{1}}}
\@writefile{nav}{\headcommand {\sectionentry {1}{The data that we have}{2}{The data that we have}{0}}}
\newlabel{sec:org17d5248}{{1}{2}{The data that we have}{Doc-Start}{}}
\@writefile{snm}{\beamer@slide {sec:org17d5248}{2}}
\newlabel{sec:orgcaa7c6b}{{1}{2}{The data that we have}{Doc-Start}{}}
\@writefile{snm}{\beamer@slide {sec:orgcaa7c6b}{2}}
\newlabel{fig:org19418f8}{{1}{2}{The data that we have}{Doc-Start}{}}
\@writefile{snm}{\beamer@slide {fig:org19418f8}{2}}
\@writefile{toc}{\beamer@sectionintoc {2}{Gaussian noise}{2}{0}{2}}
\@writefile{nav}{\headcommand {\beamer@sectionpages {2}{1}}}
\@writefile{nav}{\headcommand {\beamer@subsectionpages {2}{1}}}
\@writefile{nav}{\headcommand {\sectionentry {2}{Gaussian noise}{2}{Gaussian noise}{0}}}
\newlabel{sec:orgda18f09}{{2}{2}{Gaussian noise}{Doc-Start}{}}
\@writefile{snm}{\beamer@slide {sec:orgda18f09}{2}}
\@writefile{nav}{\headcommand {\beamer@subsectionpages {2}{1}}}
\newlabel{sec:org71a8956}{{1}{2}{}{Doc-Start}{}}
\@writefile{snm}{\beamer@slide {sec:org71a8956}{2}}
\newlabel{fig:org983771a}{{2}{3}{}{Doc-Start}{}}
\@writefile{snm}{\beamer@slide {fig:org983771a}{2}}
\@writefile{toc}{\beamer@sectionintoc {3}{Which run is the best ?}{3}{0}{3}}
\@writefile{nav}{\headcommand {\beamer@sectionpages {2}{2}}}
\@writefile{nav}{\headcommand {\beamer@subsectionpages {2}{2}}}
\@writefile{nav}{\headcommand {\sectionentry {3}{Which run is the best ?}{3}{Which run is the best ?}{0}}}
\newlabel{sec:org7bd7815}{{3}{3}{Which run is the best ?}{Doc-Start}{}}
\@writefile{snm}{\beamer@slide {sec:org7bd7815}{3}}
\@writefile{nav}{\headcommand {\beamer@subsectionpages {3}{2}}}
\newlabel{sec:org844fdc4}{{1}{3}{}{Doc-Start}{}}
\@writefile{snm}{\beamer@slide {sec:org844fdc4}{3}}
\newlabel{fig:org487e50c}{{3}{4}{}{Doc-Start}{}}
\@writefile{snm}{\beamer@slide {fig:org487e50c}{3}}
\@writefile{toc}{\beamer@sectionintoc {4}{What we want to do in the future ?}{4}{0}{4}}
\@writefile{nav}{\headcommand {\beamer@sectionpages {3}{3}}}
\@writefile{nav}{\headcommand {\beamer@subsectionpages {3}{3}}}
\@writefile{nav}{\headcommand {\sectionentry {4}{What we want to do in the future ?}{4}{What we want to do in the future ?}{0}}}
\newlabel{sec:orgec41b3c}{{4}{4}{What we want to do in the future ?}{Doc-Start}{}}
\@writefile{snm}{\beamer@slide {sec:orgec41b3c}{4}}
\@writefile{nav}{\headcommand {\beamer@subsectionpages {4}{3}}}
\newlabel{sec:org7d5f5b4}{{1}{4}{}{Doc-Start}{}}
\@writefile{snm}{\beamer@slide {sec:org7d5f5b4}{4}}
\newlabel{fig:org9f7618f}{{4}{5}{}{Doc-Start}{}}
\@writefile{snm}{\beamer@slide {fig:org9f7618f}{4}}
\@writefile{toc}{\beamer@sectionintoc {5}{Future}{5}{0}{5}}
\@writefile{nav}{\headcommand {\beamer@sectionpages {4}{4}}}
\@writefile{nav}{\headcommand {\beamer@subsectionpages {4}{4}}}
\@writefile{nav}{\headcommand {\sectionentry {5}{Future}{5}{Future}{0}}}
\@writefile{nav}{\headcommand {\beamer@subsectionpages {5}{4}}}
\newlabel{fig:org9f7618f}{{5}{6}{}{Doc-Start}{}}
\@writefile{snm}{\beamer@slide {fig:org9f7618f}{5}}
\@writefile{nav}{\headcommand {\beamer@partpages {1}{6}}}
\@writefile{nav}{\headcommand {\beamer@subsectionpages {5}{6}}}
\@writefile{nav}{\headcommand {\beamer@sectionpages {5}{6}}}
\@writefile{nav}{\headcommand {\beamer@documentpages {6}}}
\@writefile{nav}{\headcommand {\gdef \inserttotalframenumber {1}}}
